<svg width="21" height="22" viewBox="0 0 21 22" fill="none" xmlns="http://www.w3.org/2000/svg">
<path d="M20.9013 11.498C20.9644 11.3457 20.9995 11.1789 21 11.0039V10.9961C20.999 10.6645 20.872 10.3331 20.619 10.0801L11.4199 0.881037C10.9119 0.372988 10.0881 0.372988 9.5801 0.881037C9.07205 1.38909 9.07205 2.2128 9.5801 2.72085L16.5583 9.69906L1.30094 9.69906C0.582453 9.69906 -3.52408e-07 10.2815 0 11C-5.79712e-07 11.7185 0.582452 12.3009 1.30094 12.3009H16.5583L9.5801 19.2792C9.07205 19.7872 9.07205 20.6109 9.5801 21.119C10.0881 21.627 10.9119 21.627 11.4199 21.119L20.6183 11.9205L20.6217 11.9171C20.7451 11.7931 20.8383 11.6503 20.9013 11.498Z" fill="#151391"/>
</svg>
