<svg width="79" height="88" viewBox="0 0 79 88" fill="none" xmlns="http://www.w3.org/2000/svg">
<path d="M78.8998 43.2725V86.9734H39.7074V43.3256L78.8998 43.2725Z" fill="#EAC02C" stroke="black" stroke-width="0.2"/>
<path fill-rule="evenodd" clip-rule="evenodd" d="M40.7426 87.0999L40.7334 44.2759H41.0748L41.0841 87.0999H40.7426Z" fill="black"/>
<path fill-rule="evenodd" clip-rule="evenodd" d="M77.8842 87.0999L77.875 44.2759H78.2164L78.2257 87.0999H77.8842Z" fill="black"/>
<path fill-rule="evenodd" clip-rule="evenodd" d="M40.7334 44.6119H78.1406V44.2759H40.7334V44.6119Z" fill="black"/>
<path d="M44.2917 51.4832H74.012C74.4246 51.4832 74.7619 51.1588 74.7619 50.7555C74.7619 50.3522 74.4246 50.0279 74.012 50.0279H44.2917C43.8792 50.0279 43.5418 50.3522 43.5418 50.7555C43.5418 51.1588 43.8792 51.4832 44.2917 51.4832Z" fill="white" stroke="black" stroke-width="0.1"/>
<path d="M73.5357 79.2168H44.778C44.3063 79.2168 43.9438 78.8497 43.9438 78.4204V55.2968C43.9438 54.8675 44.3063 54.5004 44.778 54.5004H73.5357C74.0071 54.5004 74.3698 54.8676 74.3698 55.2968V78.4204C74.3698 78.8496 74.0071 79.2168 73.5357 79.2168Z" fill="white" stroke="black" stroke-width="0.704024"/>
<path fill-rule="evenodd" clip-rule="evenodd" d="M43.5332 75.2774H74.6284V74.9449H43.5332V75.2774Z" fill="black"/>
<path fill-rule="evenodd" clip-rule="evenodd" d="M43.5332 68.9735H74.6284V68.6411H43.5332V68.9735Z" fill="black"/>
<path d="M35.9336 0.621557L35.9352 0.62153C36.4184 0.61363 36.8341 0.692843 37.1267 0.895652C37.4126 1.09385 37.5961 1.42083 37.5961 1.94825V85.9923C37.5961 86.191 37.5961 86.3549 37.5861 86.4913C37.5762 86.6284 37.5568 86.7279 37.5234 86.8005C37.4919 86.869 37.4473 86.9153 37.3781 86.9469C37.3047 86.9805 37.1983 86.9999 37.0406 86.9999H0.733653C0.555754 86.9999 0.433168 86.9803 0.347416 86.9453C0.265697 86.9119 0.215351 86.8638 0.1807 86.7965C0.143881 86.725 0.122287 86.6269 0.111165 86.4904C0.100086 86.3545 0.1 86.1911 0.1 85.9923V2.50677C0.1 1.46519 0.839967 0.636767 1.73775 0.621601C1.73802 0.621597 1.73829 0.621592 1.73856 0.621588L35.9336 0.621557Z" fill="#EAC02C" stroke="black" stroke-width="0.2"/>
<path fill-rule="evenodd" clip-rule="evenodd" d="M0 35.4831H37.6209V34.8176H0V35.4831Z" fill="black"/>
<path d="M4.52696 57.9886C4.3145 57.9886 4.10788 57.8099 3.9514 57.488C3.79657 57.1696 3.69941 56.7262 3.69941 56.2338V15.9236C3.69941 15.431 3.79657 14.9876 3.9514 14.6691C4.10788 14.3472 4.3145 14.1685 4.52696 14.1685C4.7394 14.1685 4.94602 14.3472 5.1025 14.6691C5.25733 14.9876 5.3545 15.431 5.3545 15.9236V56.2338C5.3545 56.7262 5.25733 57.1696 5.1025 57.488C4.94602 57.8099 4.7394 57.9886 4.52696 57.9886Z" fill="white" stroke="black" stroke-width="0.1"/>
<path fill-rule="evenodd" clip-rule="evenodd" d="M67.5977 43.4823H68.0419V42.2372H67.5977V43.4823Z" fill="black"/>
<path fill-rule="evenodd" clip-rule="evenodd" d="M70.9199 43.4526H71.3641V42.2075H70.9199V43.4526Z" fill="black"/>
<path fill-rule="evenodd" clip-rule="evenodd" d="M69.2598 43.4526H69.704V42.2075H69.2598V43.4526Z" fill="black"/>
<path fill-rule="evenodd" clip-rule="evenodd" d="M72.5801 43.4665H73.0243V42.2214H72.5801V43.4665Z" fill="black"/>
<path fill-rule="evenodd" clip-rule="evenodd" d="M74.2988 43.4665H74.743V42.2214H74.2988V43.4665Z" fill="black"/>
<path fill-rule="evenodd" clip-rule="evenodd" d="M74.8039 42.5751H67.4688C67.2874 42.5751 67.1406 42.4302 67.1406 42.2518C67.1406 42.0729 67.2874 41.9281 67.4688 41.9281H74.8039C74.9849 41.9281 75.1317 42.0729 75.1317 42.2518C75.1317 42.4302 74.9849 42.5751 74.8039 42.5751Z" fill="black"/>
<path fill-rule="evenodd" clip-rule="evenodd" d="M44.4658 43.4823H44.91V42.2372H44.4658V43.4823Z" fill="black"/>
<path fill-rule="evenodd" clip-rule="evenodd" d="M47.7305 43.4526H48.175V42.2075H47.7305V43.4526Z" fill="black"/>
<path fill-rule="evenodd" clip-rule="evenodd" d="M46.0693 43.4526H46.5139V42.2075H46.0693V43.4526Z" fill="black"/>
<path fill-rule="evenodd" clip-rule="evenodd" d="M49.4473 43.4665H49.8915V42.2214H49.4473V43.4665Z" fill="black"/>
<path fill-rule="evenodd" clip-rule="evenodd" d="M51.1074 43.4665H51.5516V42.2214H51.1074V43.4665Z" fill="black"/>
<path fill-rule="evenodd" clip-rule="evenodd" d="M51.6711 42.5751H44.3359C44.1546 42.5751 44.0078 42.4302 44.0078 42.2518C44.0078 42.0729 44.1546 41.9281 44.3359 41.9281H51.6711C51.852 41.9281 51.9992 42.0729 51.9992 42.2518C51.9992 42.4302 51.852 42.5751 51.6711 42.5751Z" fill="black"/>
<path fill-rule="evenodd" clip-rule="evenodd" d="M54.8867 43.4665H55.3313V42.2214H54.8867V43.4665Z" fill="black"/>
<path fill-rule="evenodd" clip-rule="evenodd" d="M59.1826 43.437H59.6268V42.1919H59.1826V43.437Z" fill="black"/>
<path fill-rule="evenodd" clip-rule="evenodd" d="M57.0068 43.437H57.451V42.1919H57.0068V43.437Z" fill="black"/>
<path fill-rule="evenodd" clip-rule="evenodd" d="M61.5293 43.4526H61.9735V42.2075H61.5293V43.4526Z" fill="black"/>
<path fill-rule="evenodd" clip-rule="evenodd" d="M63.6475 43.4526H64.092V42.2075H63.6475V43.4526Z" fill="black"/>
<path fill-rule="evenodd" clip-rule="evenodd" d="M64.2946 42.5598H54.7568C54.5755 42.5598 54.4287 42.415 54.4287 42.2365C54.4287 42.0577 54.5755 41.9128 54.7568 41.9128H64.2946C64.4759 41.9128 64.6227 42.0577 64.6227 42.2365C64.6227 42.415 64.4759 42.5598 64.2946 42.5598Z" fill="black"/>
</svg>
